Zl           * 0.89
Zcl          * 0.83
Zcc          * 1.37
Zbl          * 1.30
Zbb          * 1.18
Wl           * 0.95
Wcl          * 1.09
Wcc          * 0.97
Wbl          * 0.70
Wbb          * 1.03
ttbar        * 1.04
ttbar   *2jet* 1.07
ttbar   *3jet* 1.02
