Zl         * 0.89
Zcl        * 0.83
Zcc        * 1.29
Zbb        * 1.29
Zbl        * 1.29
Wl         * 0.95
Wcl        * 1.09
Wcc        * 0.82
Wbb        * 0.82
Wbl        * 0.82
ttbar      * 1.04
ttbar *2jet* 1.07
ttbar *3jet* 1.02
